<svg xmlns="http://www.w3.org/2000/svg" width="18" height="18" viewBox="0 0 18 18">
  <path d="M8.98 12.78a3.796 3.796 0 0 1-3.76-3.8 3.788 3.788 0 0 1 3.79-3.76 3.79 3.79 0 0 1 3.77 3.79 3.798 3.798 0 0 1-3.8 3.77zm8.98-2.99l.04-.75-.03-.77-1.6-.4-.4-1.53 1.19-1.14-.76-1.31-1.58.44-1.11-1.11.46-1.59-1.31-.76-1.15 1.18-1.52-.42-.4-1.59L9.03 0l-.76.03-.4 1.59-1.53.41L5.2.84l-1.31.75.45 1.59-1.12 1.11-1.59-.46-.76 1.31 1.18 1.15-.42 1.52-1.59.39-.04.76.03.76 1.59.41.41 1.52-1.19 1.14.75 1.32 1.59-.45 1.11 1.12-.46 1.58 1.31.77 1.15-1.18 1.52.41.39 1.6.76.04.76-.03.41-1.6 1.52-.4 1.14 1.19 1.32-.76-.45-1.58 1.12-1.11 1.59.46.76-1.31-1.18-1.15.41-1.52 1.6-.4z"/>
</svg>
