<svg xmlns="http://www.w3.org/2000/svg" width="32" height="10" viewBox="0 0 32 10">
  <path d="M31.58 4.08c-15.6-9.5-26.62.14-29.67 3.38L3.5 2.92l-.92-.34L0 10l7.69-1.16-.14-.99-5.42.82C4.07 6.43 15.04-4.84 31.09 4.93l.42.25.49-.85-.42-.25z"/>
</svg>
