<svg xmlns="http://www.w3.org/2000/svg" width="14" height="14" viewBox="0 0 14 14">
  <path d="M7.01.04C3.15.04.02 3.16.02 7.01s3.13 6.97 6.99 6.97S14 10.86 14 7.01 10.87.04 7.01.04zm4.2 9.75L9.8 11.2 7.01 8.42 4.22 11.2 2.81 9.79 5.6 7.01 2.81 4.23l1.41-1.41L7.01 5.6 9.8 2.82l1.41 1.41-2.79 2.78 2.79 2.78zm0 0"/>
  <path fill="none" d="M0 0h14v14H0z"/>
</svg>
