<svg xmlns="http://www.w3.org/2000/svg" width="16" height="16" viewBox="0 0 16 16">
  <path d="M2.05 6.46c0-2.42 1.99-4.41 4.41-4.41 2.44 0 4.43 1.99 4.43 4.41 0 2.44-1.99 4.43-4.43 4.43a4.434 4.434 0 0 1-4.41-4.43zm13.84 7.51L11.9 9.95c.64-.99 1.03-2.19 1.03-3.5C12.93 2.9 10.04 0 6.46 0a6.47 6.47 0 0 0 0 12.94c1.3 0 2.5-.39 3.5-1.03l4.01 3.99c.12.14.35.14.48 0l1.45-1.45a.32.32 0 0 0-.01-.48z"/>
</svg>
