<svg version="1.1" xmlns="http://www.w3.org/2000/svg" viewBox="0 0 104 19" width="104" height="19">
  <g>
    <path
      fill="#FFFFFF"
      d="M103.159,16.807c-0.463,0-0.836-0.371-0.836-0.836c0-0.462,0.373-0.836,0.836-0.836 c0.466,0,0.842,0.375,0.842,0.836C104,16.436,103.625,16.807,103.159,16.807L103.159,16.807z M103.159,15.259 c-0.391,0-0.705,0.32-0.705,0.711c0,0.394,0.314,0.707,0.705,0.707c0.394,0,0.714-0.313,0.714-0.707 C103.873,15.58,103.552,15.259,103.159,15.259L103.159,15.259z M103.515,16.491h-0.087l-0.038-0.027l-0.252-0.397l-0.03-0.01 h-0.131v0.386l-0.043,0.048h-0.078l-0.041-0.048v-0.94c0-0.039,0.02-0.066,0.057-0.069c0.046-0.006,0.168-0.009,0.236-0.009 c0.257,0,0.407,0.078,0.407,0.313v0.015c0,0.157-0.078,0.241-0.208,0.277l0.239,0.39l0.006,0.031 C103.552,16.47,103.543,16.491,103.515,16.491L103.515,16.491z M103.359,15.737c0-0.123-0.071-0.169-0.242-0.169h-0.1h-0.044v0.35 c0.034,0,0.118,0.004,0.144,0.004c0.174,0,0.242-0.046,0.242-0.17V15.737z"/>
    <path
      fill="#FFFFFF"
      d="M34.3,16.951c-1.329,0-2.478-0.485-3.357-1.365c-1.254-1.254-1.238-2.672-1.238-5.131 c0-2.457-0.017-3.875,1.238-5.131c0.88-0.877,2.029-1.363,3.357-1.363c2.352,0,4.11,1.383,4.559,3.929h-1.975 C36.58,6.598,35.719,5.701,34.3,5.701c-0.753,0-1.436,0.288-1.885,0.772c-0.628,0.682-0.771,1.416-0.771,3.981 s0.143,3.302,0.771,3.984c0.449,0.483,1.132,0.77,1.885,0.77c1.419,0,2.298-0.896,2.603-2.188h1.956 C38.428,15.568,36.615,16.951,34.3,16.951L34.3,16.951z"/>
    <path
      fill="#FFFFFF"
      d="M46.953,15.874c-0.591,0.609-1.49,1.077-2.728,1.077s-2.119-0.468-2.711-1.077 c-0.862-0.898-1.076-2.047-1.076-3.589c0-1.525,0.214-2.672,1.076-3.57c0.592-0.609,1.473-1.075,2.711-1.075 s2.136,0.465,2.728,1.075c0.863,0.898,1.078,2.045,1.078,3.57C48.031,13.827,47.816,14.976,46.953,15.874L46.953,15.874z M45.571,9.79c-0.341-0.34-0.808-0.518-1.346-0.518c-0.539,0-0.988,0.177-1.329,0.518c-0.556,0.557-0.628,1.508-0.628,2.495 c0,0.989,0.072,1.938,0.628,2.494c0.341,0.341,0.79,0.539,1.329,0.539c0.538,0,1.005-0.197,1.346-0.539 c0.557-0.557,0.628-1.505,0.628-2.494C46.2,11.298,46.128,10.347,45.571,9.79L45.571,9.79z"/>
    <path
      fill="#FFFFFF"
      d="M55.695,16.843v-5.544c0-1.417-0.809-2.026-1.831-2.026s-1.885,0.627-1.885,2.026v5.544h-1.83V7.747h1.795 v0.914c0.627-0.681,1.507-1.021,2.422-1.021c0.934,0,1.705,0.303,2.243,0.824c0.701,0.682,0.917,1.544,0.917,2.567v5.812H55.695z"/>
    <path fill="#FFFFFF" d="M62.102,9.307v7.535h-1.831V9.307H59.23v-1.4h1.041v-1.4c0-1.309,0.79-2.528,2.495-2.528h1.148v1.561 h-0.807c-0.683,0-1.005,0.396-1.005,1.059v1.31h1.813v1.4H62.102z"/>
    <path fill="#FFFFFF" d="M65.511,7.747h1.831v9.096h-1.831V7.747z"/>
    <path fill="#FFFFFF" d="M74.898,9.881c-0.412-0.412-0.735-0.608-1.364-0.608c-0.988,0-1.813,0.789-1.813,2.043v5.527h-1.83V7.747 h1.794v0.986c0.467-0.645,1.399-1.094,2.424-1.094c0.878,0,1.543,0.232,2.171,0.86L74.898,9.881z"/>
    <path
      fill="#FFFFFF"
      d="M88.503,16.843v-5.544c0-1.417-0.808-2.026-1.83-2.026c-0.987,0-1.885,0.627-1.885,1.935v5.636h-1.831 v-5.544c0-1.417-0.808-2.026-1.831-2.026s-1.885,0.627-1.885,2.026v5.544h-1.83V7.747h1.794v0.914 c0.61-0.663,1.507-1.021,2.423-1.021c1.129,0,2.011,0.449,2.584,1.327c0.735-0.898,1.652-1.327,2.854-1.327 c0.934,0,1.76,0.303,2.298,0.824c0.7,0.682,0.969,1.544,0.969,2.567v5.812H88.503z"/>
    <path fill="#FFFFFF" d="M92.792,7.747h1.83v9.096h-1.83V7.747z"/>
    <path fill="#FFFFFF" d="M99.882,16.843c-1.705,0-2.495-1.22-2.495-2.531V9.307h-1.041V7.906h1.041V5.145h1.83v2.761h1.761v1.401 h-1.761v4.917c0,0.662,0.324,1.058,1.006,1.058h0.755v1.561H99.882z"/>
  </g>
  <g>
    <path
      fill="#FFFFFF"
      d="M10.584,12.725c-0.02,0.368-0.035,0.806-0.171,1.154c-0.072,0.185-0.143,0.381-0.239,0.556 c-0.051,0.093-0.107,0.181-0.169,0.265c-0.465,0.634-3.341,1.366-3.945,1.391L2.246,9.15l1.506-0.475l0.752-0.055 C5.677,8.57,6.922,8.575,8.065,8.882L10.584,12.725z"/>
    <path fill="#FFFFFF" d="M11.133,13.997c-0.95-0.104-1.894-0.27-2.794-0.592c-1.007-0.361-1.958-0.928-2.636-1.769 c-0.692-0.857-1.046-1.932-1.204-3.01l-0.08-0.792h7.802L11.133,13.997z"/>
    <linearGradient id="SVGID_1_" gradientUnits="userSpaceOnUse" x1="14.1055" y1="-0.0049" x2="14.1055" y2="14.1665">
      <stop offset="0" style="stop-color:#FFFFFF"/>
      <stop offset="0.4755" style="stop-color:#F37B20"/>
      <stop offset="0.8755" style="stop-color:#EE4623"/>
    </linearGradient>
    <path
      fill="url(#SVGID_1_)"
      d="M21.345,1.477c-0.838-0.558-1.813-0.883-2.791-1.093c-1.242-0.267-2.519-0.357-3.787-0.381 c-1.294-0.024-2.595,0.008-3.88,0.171C9.813,0.311,8.733,0.54,7.744,0.987C7.099,1.279,6.5,1.669,6.003,2.175 c-0.7,0.716-1.138,1.629-1.367,2.597c-0.14,0.591-0.208,1.198-0.232,1.805C4.395,6.818,4.391,7.06,4.396,7.301 C4.4,7.477,4.408,7.653,4.419,7.83C4.422,7.879,4.416,7.977,4.446,8c0.037,0.029,0.217-0.01,0.272-0.012 C5.944,7.943,7.231,7.98,8.413,8.34c0.774,0.236,1.498,0.643,1.991,1.295c0.715,0.947,0.852,2.22,0.758,3.37 c-0.027,0.332-0.081,0.661-0.171,0.981c1.948,0.228,3.956,0.24,5.906,0.036c1.238-0.13,2.494-0.368,3.63-0.895 c1.009-0.468,1.883-1.202,2.434-2.178c0.866-1.535,0.968-3.483,0.77-5.198C23.531,4.034,22.815,2.458,21.345,1.477 C19.744,0.412,22.949,2.548,21.345,1.477z"/>
    <linearGradient id="SVGID_2_" gradientUnits="userSpaceOnUse" x1="7.5435" y1="8.5693" x2="7.5435" y2="16.217">
      <stop offset="0" style="stop-color:#FFFFFF"/>
      <stop offset="0.0272" style="stop-color:#FFF7EC"/>
      <stop offset="0.113" style="stop-color:#FDE0B6"/>
      <stop offset="0.1967" style="stop-color:#FCCD89"/>
      <stop offset="0.2767" style="stop-color:#FBBE66"/>
      <stop offset="0.3517" style="stop-color:#FBB44D"/>
      <stop offset="0.42" style="stop-color:#FAAD3E"/>
      <stop offset="0.4755" style="stop-color:#FAAB39"/>
      <stop offset="0.8755" style="stop-color:#F5861F"/>
    </linearGradient>
    <path
      fill="url(#SVGID_2_)"
      d="M10.158,10.37C9.35,8.874,7.395,8.658,5.877,8.613C5.418,8.599,4.958,8.601,4.498,8.621 c0.126,0.865,0.366,1.718,0.822,2.47c0.409,0.674,0.979,1.232,1.644,1.653c0.774,0.49,1.656,0.789,2.544,0.991 c0.237,0.054,0.476,0.099,0.715,0.141c0.026,0.004,0.146,0.042,0.168,0.028c0.038-0.023,0.068-0.257,0.079-0.306 c0.044-0.204,0.073-0.41,0.091-0.617C10.635,12.115,10.58,11.149,10.158,10.37C9.956,9.995,10.436,10.883,10.158,10.37z"/>
    <linearGradient id="SVGID_3_" gradientUnits="userSpaceOnUse" x1="5.0713" y1="8.6675" x2="5.0713" y2="16.2393">
      <stop offset="0" style="stop-color:#FFFFFF"/>
      <stop offset="0.0272" style="stop-color:#FFF7EC"/>
      <stop offset="0.113" style="stop-color:#FDE0B6"/>
      <stop offset="0.1967" style="stop-color:#FCCD89"/>
      <stop offset="0.2767" style="stop-color:#FBBE66"/>
      <stop offset="0.3517" style="stop-color:#FBB44D"/>
      <stop offset="0.42" style="stop-color:#FAAD3E"/>
      <stop offset="0.4755" style="stop-color:#FAAB39"/>
      <stop offset="0.8755" style="stop-color:#F5861F"/>
    </linearGradient>
    <path
      fill="url(#SVGID_3_)"
      d="M9.25,14.317c-0.315-0.075-0.628-0.163-0.935-0.266c-0.603-0.203-1.187-0.466-1.722-0.81 c-0.896-0.575-1.606-1.384-2.062-2.346C4.282,10.37,4.108,9.811,3.993,9.241C3.961,9.086,3.934,8.931,3.911,8.774 C3.893,8.647,3.876,8.663,3.751,8.676c-0.093,0.01-0.186,0.021-0.279,0.033C3.152,8.751,2.834,8.81,2.522,8.893 C1.906,9.057,1.304,9.329,0.856,9.792c-0.529,0.546-0.754,1.291-0.823,2.035c-0.088,0.942-0.021,2.008,0.504,2.823 c0.839,1.3,2.585,1.516,4.008,1.573c0.825,0.033,1.658,0.024,2.478-0.078c0.905-0.112,1.868-0.336,2.567-0.958 c0.221-0.197,0.408-0.43,0.552-0.689C10.121,14.493,9.518,14.38,9.25,14.317z"/>
    <g>
      <linearGradient id="SVGID_4_" gradientUnits="userSpaceOnUse" x1="10.9824" y1="16.7529" x2="10.9824" y2="18.9951">
        <stop offset="0" style="stop-color:#FFFFFF"/>
        <stop offset="0.0991" style="stop-color:#FEF5EB"/>
        <stop offset="0.3024" style="stop-color:#FDD9B7"/>
        <stop offset="0.533" style="stop-color:#FBB775"/>
        <stop offset="1" style="stop-color:#F5861F"/>
      </linearGradient>
      <path
        fill="url(#SVGID_4_)"
        d="M12.196,16.997c-0.232-0.155-0.531-0.2-0.803-0.224c-0.346-0.031-0.707-0.029-1.05,0.024 c-0.251,0.039-0.517,0.107-0.705,0.289C9.43,17.288,9.38,17.588,9.38,17.868c0,0.271,0.046,0.566,0.245,0.767 c0.215,0.217,0.54,0.285,0.833,0.318c0.548,0.063,1.392,0.113,1.833-0.291C12.719,18.271,12.672,17.33,12.196,16.997 C11.955,16.836,12.434,17.163,12.196,16.997z"/>
    </g>
  </g>
</svg>
