// Jest Snapshot v1, https://goo.gl/fbAQLP

exports[`File download rendering should render correct component 1`] = `
<a
  className="foo bar"
  fooProp="barVal"
  onClick={[Function]}
>
  Gurba
</a>
`;
