<svg xmlns="http://www.w3.org/2000/svg" viewBox="0 0 1553.16 718.65" fill="#13224d" role="img">
    <polygon points="0 0 0 197.28 281.82 338.19 422.74 239.55 0 0"/>
    <polygon points="450.92 253.64 450.92 479.1 0 718.65 0 225.46 140.91 324.1 42.27 648.2 450.92 253.64"/>
    <path
      d="M1023.87,483.82V397q0-3.15.94-18h-.34q-2.65,6.91-4.45,10.66l-43.66,94.12h-2.74l-43.83-93.61a69.62,69.62,0,0,1-4-11.51h-.43q.6,8.18.6,16.28v88.83h-8.48V361.56h7.88L971.13,460a21,21,0,0,1,.94,2.3q.51,1.45,1.11,2.9.86,2.22,1.8,4.94h.51l.94-2.73q.08-.34,2.91-8.1l45.12-97.79H1032V483.82Z"
      transform="translate(-186.8 -179.72)"/>
    <path
      d="M1065.64,374.52a6.38,6.38,0,0,1-4.54-1.88,6.3,6.3,0,0,1-2-4.77,5.75,5.75,0,0,1,2-4.56,6.68,6.68,0,0,1,4.49-1.75,7,7,0,0,1,4.67,1.71,5.73,5.73,0,0,1,2,4.6,6.71,6.71,0,0,1-6.68,6.65Zm-3.85,109.29v-87.3h7.88v87.3Z"
      transform="translate(-186.8 -179.72)"/>
    <path
      d="M1154.51,480q-9.76,6-23.29,6-17.89,0-28.85-12.23t-11-32q0-20.8,12.33-34.06t31.68-13.26a48.3,48.3,0,0,1,19.43,4.09v8.87a38.62,38.62,0,0,0-20.63-5.8q-15.41,0-25,11t-9.59,28.6q0,17,8.78,27.28t23.16,10.32a38.36,38.36,0,0,0,22.94-7Z"
      transform="translate(-186.8 -179.72)"/>
    <path
      d="M1216.92,404.7a15.49,15.49,0,0,0-9.25-2.81q-10.36,0-17.38,10.66t-7,30.27v41h-7.71v-87.3h7.71v19.35h.34q3-10,9.5-15.52a22.54,22.54,0,0,1,15.07-5.54,23.44,23.44,0,0,1,8.73,1.53Z"
      transform="translate(-186.8 -179.72)"/>
    <path
      d="M1265.12,486q-19.18,0-30.35-12.57t-11.17-32.69q0-21.74,11.69-34t30.78-12.28q18.75,0,29.62,12.19t10.87,33.76q0,20.38-11.09,33T1265.12,486Zm.6-84.4q-15.5,0-24.7,10.4t-9.2,28.9q0,17.14,9,27.54t24.57,10.4q15.84,0,24.4-10.23t8.56-28.39q0-18.67-8.52-28.65T1265.72,401.55Z"
      transform="translate(-186.8 -179.72)"/>
    <path
      d="M1323.76,480v-9.46a33,33,0,0,0,10.79,6.05,34,34,0,0,0,11,2.22q20.63,0,20.63-16.79a12.85,12.85,0,0,0-4.54-9.89q-4.54-4.09-14.72-8.44-12.58-5.46-17.68-11.3a22.27,22.27,0,0,1,3.08-31.42q8.17-6.56,20.16-6.56,11.3,0,19.35,4.6v8.87a36.73,36.73,0,0,0-20.21-6.31q-8.65,0-14,4.48a14.5,14.5,0,0,0-5.31,11.64,14.93,14.93,0,0,0,3.34,10.1q3.34,3.88,14.72,8.91,13.7,6.14,18.83,11.38t5.14,13.94a21.73,21.73,0,0,1-7.83,17.18q-7.83,6.78-21.62,6.78Q1332.24,486,1323.76,480Z"
      transform="translate(-186.8 -179.72)"/>
    <path
      d="M1431.55,486q-19.18,0-30.35-12.57T1390,440.68q0-21.74,11.69-34t30.78-12.28q18.75,0,29.62,12.19T1473,440.34q0,20.38-11.09,33T1431.55,486Zm.6-84.4q-15.5,0-24.7,10.4t-9.2,28.9q0,17.14,9,27.54t24.57,10.4q15.84,0,24.4-10.23t8.56-28.39q0-18.67-8.52-28.65T1432.15,401.55Z"
      transform="translate(-186.8 -179.72)"/>
    <path
      d="M1528.37,362.84q-3.17-2.47-9.59-2.47-16.18,0-16.18,21.65v14.49h23.2v7.16h-23.2v80.14h-7.88V403.68H1479v-7.16h15.75V381.34q0-13.81,7-21a23.32,23.32,0,0,1,17.42-7.16,23,23,0,0,1,9.25,1.62Z"
      transform="translate(-186.8 -179.72)"/>
    <path
      d="M1577.77,482.63a27.3,27.3,0,0,1-11.56,2.9q-19.44,0-19.43-23.19V403.68H1531v-7.16h15.75V373.84q1.88-.68,3.94-1.36t3.94-1.28v25.32h23.12v7.16h-23.12v57.63q0,9,2.87,13.09t9.72,4a21.8,21.8,0,0,0,10.53-3.15Z"
      transform="translate(-186.8 -179.72)"/>
    <path
      d="M745.67,693.34V571.08h30.73q30.56,0,46.49,15.18t15.92,44.25q0,28-17.08,45.4t-47.13,17.43Zm8.48-114.5V685.67h19.26q27.31,0,41.95-14.11T830,630.85q0-52-54.88-52Z"
      transform="translate(-186.8 -179.72)"/>
    <path
      d="M883.51,711.16q-4.8,11.76-10.62,17.48t-15,5.71a18.41,18.41,0,0,1-6.85-1.19v-7.84a19.85,19.85,0,0,0,7.19,1.19q10.53,0,16.61-14.49L883,692.66,849.77,606h8.82L885,677.14q.85,2.3,1.2,3.5a26,26,0,0,0,.77,2.9h.34l2.05-5.88L917.66,606h8.56Z"
      transform="translate(-186.8 -179.72)"/>
    <path
      d="M1001.14,693.34V642.53q0-31.46-22.77-31.46a26.46,26.46,0,0,0-20.8,9.25q-8.14,9.25-8.13,22.89v50.13h-7.88V606h7.88V621.9h.34q9.59-18,30-18,14.21,0,21.75,9.42t7.53,26.9v53.11Z"
      transform="translate(-186.8 -179.72)"/>
    <path
      d="M1087.77,693.34V675.86h-.34a34.24,34.24,0,0,1-12.2,14.28,31.37,31.37,0,0,1-17.76,5.33q-12.5,0-19.78-7a23.43,23.43,0,0,1-7.28-17.65q0-22.85,30.39-27.62l27-4q0-28.13-21.23-28.13-14.47,0-28.17,11.59V613.2a43,43,0,0,1,13.23-6.56,50.67,50.67,0,0,1,15.71-2.73q13.52,0,20.93,8.35t7.41,24.3v56.78Zm-24.14-43.48q-13.78,2-19.35,6.35t-5.57,14.28a17.06,17.06,0,0,0,5.18,12.79q5.18,5,14.43,5a27.13,27.13,0,0,0,21.06-9.33q8.39-9.34,8.39-24.08v-8.53Z"
      transform="translate(-186.8 -179.72)"/>
    <path
      d="M1231.94,693.34V640.82q0-16.45-5.18-23.1t-16.39-6.65q-10.36,0-17.89,8.87t-7.53,22.25v51.15h-7.88V640.22q0-29.16-22.26-29.16-10.7,0-17.81,8.91T1129.9,643v50.3H1122V606h7.88v14.49h.34q9.16-16.62,26.8-16.62a25.27,25.27,0,0,1,16.39,5.5,27,27,0,0,1,9.2,14.45,33.44,33.44,0,0,1,11.77-14.71,28.89,28.89,0,0,1,16.65-5.24q28.77,0,28.77,35.46v54Z"
      transform="translate(-186.8 -179.72)"/>
    <path
      d="M1270,584a6.38,6.38,0,0,1-4.54-1.88,6.3,6.3,0,0,1-2-4.77,5.75,5.75,0,0,1,2-4.56,6.68,6.68,0,0,1,4.49-1.75,7,7,0,0,1,4.67,1.71,5.73,5.73,0,0,1,2,4.6A6.71,6.71,0,0,1,1270,584Zm-3.85,109.29V606H1274v87.3Z"
      transform="translate(-186.8 -179.72)"/>
    <path
      d="M1358.82,689.5q-9.76,6-23.29,6-17.89,0-28.85-12.23t-11-32q0-20.8,12.33-34.06t31.68-13.26a48.29,48.29,0,0,1,19.43,4.09v8.87a38.62,38.62,0,0,0-20.63-5.8q-15.41,0-25,11t-9.59,28.6q0,17,8.78,27.28t23.16,10.32a38.36,38.36,0,0,0,22.94-7Z"
      transform="translate(-186.8 -179.72)"/>
    <path
      d="M1375.34,689.5V680a33,33,0,0,0,10.79,6.05,34,34,0,0,0,11,2.22q20.63,0,20.63-16.79a12.85,12.85,0,0,0-4.54-9.89q-4.54-4.09-14.72-8.44-12.58-5.46-17.68-11.3a22.27,22.27,0,0,1,3.08-31.42q8.17-6.56,20.16-6.56,11.3,0,19.35,4.6v8.87a36.74,36.74,0,0,0-20.21-6.31q-8.65,0-14,4.48a14.5,14.5,0,0,0-5.31,11.64,14.93,14.93,0,0,0,3.34,10.1q3.34,3.88,14.72,8.91,13.7,6.14,18.83,11.38t5.14,13.94a21.73,21.73,0,0,1-7.83,17.18q-7.83,6.78-21.62,6.78Q1383.82,695.47,1375.34,689.5Z"
      transform="translate(-186.8 -179.72)"/>
    <path
      d="M1491.78,689v-9q14,8.27,26.45,8.27,14.81,0,23.2-7.54t8.39-19.74q0-13.55-9.63-20.55t-27.44-7h-9.42v-7.16h8.39q16.44,0,25-6.95t8.6-19.65q0-11-6.25-17.26t-18.24-6.27q-11.56,0-24.23,8v-8.35q13.87-6.82,25.43-6.82,14.55,0,23.07,7.84t8.52,20.8q0,24.81-23.89,31.54v.34q12.84,1.28,20.55,9.51t7.71,20.76q0,16-11.13,25.83t-28.85,9.8A56.69,56.69,0,0,1,1491.78,689Z"
      transform="translate(-186.8 -179.72)"/>
    <path
      d="M1648.36,572v8.36a41.41,41.41,0,0,0-18.06-4.18,30.74,30.74,0,0,0-16.44,4.48,38.86,38.86,0,0,0-12.41,12.58,64.37,64.37,0,0,0-7.88,19.31,104.3,104.3,0,0,0-2.74,24.77h.34q9-20.46,30.73-20.46a31.23,31.23,0,0,1,24.27,10.91,36.66,36.66,0,0,1,6.81,12,44.57,44.57,0,0,1,2.4,14.79,48.05,48.05,0,0,1-2.7,16.37,39,39,0,0,1-7.58,13,34.75,34.75,0,0,1-11.6,8.53,35.13,35.13,0,0,1-14.77,3.07,30.18,30.18,0,0,1-26.45-14.28,54,54,0,0,1-7.06-17.48,106.11,106.11,0,0,1-2.44-24,123.31,123.31,0,0,1,3.17-29.07,70,70,0,0,1,9.29-22.29,43.91,43.91,0,0,1,15-14.28,40.28,40.28,0,0,1,20.25-5A49.83,49.83,0,0,1,1648.36,572Zm-28.25,52a25.44,25.44,0,0,0-11.26,2.52,29.25,29.25,0,0,0-8.95,6.65,31.31,31.31,0,0,0-5.91,9.42,28.4,28.4,0,0,0-2.14,10.74,44.77,44.77,0,0,0,2,13.34,36.05,36.05,0,0,0,5.56,11.13,27.79,27.79,0,0,0,8.69,7.63,22.79,22.79,0,0,0,11.34,2.86,25.22,25.22,0,0,0,11-2.43,26.36,26.36,0,0,0,8.78-6.73A32.09,32.09,0,0,0,1645,669a37.81,37.81,0,0,0,2.1-12.79,44,44,0,0,0-1.84-13.09,29.22,29.22,0,0,0-5.35-10.15,24.41,24.41,0,0,0-8.52-6.56A26.25,26.25,0,0,0,1620.11,624Z"
      transform="translate(-186.8 -179.72)"
    />
    <path
      d="M1676.27,690.87v-9q11.81,6.48,23.46,6.48,15.07,0,23.54-8.27t8.48-22q0-29.84-34.16-29.84a174.06,174.06,0,0,0-17.64,1l3.68-58.14h51.11v7.16h-44.09l-2.82,43.48q8.82-.68,12.67-.68,19.43,0,29.45,9.51T1740,657q0,17.14-10.62,27.79T1699,695.47A53.21,53.21,0,0,1,1676.27,690.87Z"
      transform="translate(-186.8 -179.72)"
    />
</svg>
