<?xml version="1.0" encoding="UTF-8" standalone="no"?>
<!DOCTYPE svg PUBLIC "-//W3C//DTD SVG 1.1//EN" "http://www.w3.org/Graphics/SVG/1.1/DTD/svg11.dtd">
<svg width="100%" height="100%" viewBox="0 0 24 24" version="1.1" xmlns="http://www.w3.org/2000/svg" xmlns:xlink="http://www.w3.org/1999/xlink" xml:space="preserve" xmlns:serif="http://www.serif.com/" style="fill-rule:evenodd;clip-rule:evenodd;stroke-linejoin:round;stroke-miterlimit:2;">
    <path d="M4,3l0,5l2,0l0,-3l14,0l0,3l2,0l0,-5l-18,0Zm3.001,5l12,0l0,-2.001l-12,0l0,2.001Zm1,3l-6.001,0l0,2l6.001,0l0,2l3.999,-3l-3.999,-3l0,2Zm11.999,5l0,3l-14,0l0,-3l-2,0l0,5l18,0l0,-5l-2,0Zm-12.999,2l12,0l0,-2.001l-12,0l0,2.001Z"/>
</svg>
