<svg xmlns="http://www.w3.org/2000/svg" viewBox="0 0 24 24" width="24" height="24">
  <path d="M8.56,3.88a6.56,6.56,0,1,0,6.56,6.56H8.56ZM10.44,2V8.56H17A6.56,6.56,0,0,0,10.44,2Z M22,22V20.87H14.12V22Zm0-5.63H19.75V13H16.37v3.37H14.12l3.94,3.94Z"/>
</svg>
