<?xml version="1.0" encoding="UTF-8"?>
<!DOCTYPE svg PUBLIC "-//W3C//DTD SVG 1.1//EN" "http://www.w3.org/Graphics/SVG/1.1/DTD/svg11.dtd"><svg
  xmlns="http://www.w3.org/2000/svg" xmlns:xlink="http://www.w3.org/1999/xlink" version="1.1" width="24" height="24"
  viewBox="0 0 24 24">
  <path
    d="M12,2c5.52,0,10,4.48,10,10s-4.48,10-10,10S2,17.52,2,12,6.48,2,12,2Zm4.69,14.37v-1.87c0-.57-.21-.78-.63-.63h-.62v-.62c-.16-.78-.79-1.41-1.25-1.25h-1.88v-1.25h1.25c.1,.16,.32-.05,.63,0v-2.5c-.31-.41-.53-.63-.63-.63,0,0-2.51-.06-2.93,0-.41,.07-.55,.24-.82,.63v2.5c-.31-.05,.53,.16,.63,0h1.25v1.25h-1.25c-1.09-.16-1.72,.47-1.88,1.25v.62h-.62c-.42-.15-.63,.06-.63,.63v1.87c0,.42,.21,.63,.63,.63h2.5c.41,0,.62-.21,.62-.63v-1.87c0-.57-.21-.78-.62-.63h-.63v-.62c-.15-.26,.06-.47,.63-.62h3.75c-.06,.15,.15,.36,0,.62v.62h-.63c-.41-.15-.62,.06-.62,.63v1.87c0,.42,.21,.63,.62,.63h2.5c.42,0,.63-.21,.63-.63Z" />
</svg>