<?xml version="1.0" encoding="UTF-8"?>
<!DOCTYPE svg PUBLIC "-//W3C//DTD SVG 1.1//EN" "http://www.w3.org/Graphics/SVG/1.1/DTD/svg11.dtd"><svg
  xmlns="http://www.w3.org/2000/svg" xmlns:xlink="http://www.w3.org/1999/xlink" version="1.1" width="24" height="24"
  viewBox="0 0 24 24">
  <path
    d="M12,2C6.48,2,2,6.48,2,12s4.48,10,10,10,10-4.48,10-10S17.52,2,12,2Zm1.89,15.63c0,.35-.28,.63-.62,.63h-2.5c-.35,0-.63-.28-.63-.63v-.62h3.75v.62Zm.63-3.91v1.41c0,.35-.28,.63-.63,.63h-3.75c-.34,0-.63-.28-.63-.63v-1.41c-1.13-.8-1.87-2.1-1.87-3.59,0-2.42,1.96-4.38,4.38-4.38s4.37,1.96,4.37,4.38c0,1.49-.74,2.79-1.87,3.59Z" />
</svg>