<svg xmlns="http://www.w3.org/2000/svg" width="24" height="24" viewBox="0 0 24 24">
  <path fill="#000" d="M23,5 L23,21 C23,22.104 22.104,23 21,23 L5,23 L5,21 L21,21 L21,5 L23,5 Z M11.1665,9 L10.8335,11 L8.8335,11 L9.1665,9 L11.1665,9 Z M16,9 L13.167,9 L12.833,11 L15,11 L15,13 L12.5,13 L12,16 L10,16 L10.5,13 L8.5,13 L8,16 L6,16 L6.5,13 L4,13 L4,11 L6.833,11 L7.167,9 L5,9 L5,7 L7.5,7 L8,4 L10,4 L9.5,7 L11.5,7 L12,4 L14,4 L13.5,7 L16,7 L16,9 Z M17,1 L3,1 C1.896,1 1,1.896 1,3 L1,17 C1,18.104 1.896,19 3,19 L17,19 C18.104,19 19,18.104 19,17 L19,3 C19,1.896 18.104,1 17,1 L17,1 Z"/>
</svg>
