<?xml version="1.0" encoding="UTF-8" standalone="no"?>
<!DOCTYPE svg PUBLIC "-//W3C//DTD SVG 1.1//EN" "http://www.w3.org/Graphics/SVG/1.1/DTD/svg11.dtd">
<svg width="100%" height="100%" viewBox="0 0 24 24" version="1.1" xmlns="http://www.w3.org/2000/svg" xmlns:xlink="http://www.w3.org/1999/xlink" xml:space="preserve" xmlns:serif="http://www.serif.com/" style="fill-rule:evenodd;clip-rule:evenodd;stroke-linejoin:round;stroke-miterlimit:2;">
    <path d="M22,12l-2,0c0,3.84 -3.16,7 -7,7c-1.93,0 -3.68,-0.79 -4.94,-2.06l-1.42,1.42c1.63,1.64 3.86,2.64 6.36,2.64c4.937,0 9,-4.063 9,-9Zm-9,-9c-4.937,0 -9,4.063 -9,9l-3,0l3.96,4.03l4.04,-4.03l-3,0c0,-3.84 3.16,-7 7,-7l0,-2l0,0Zm0.5,5l0,4.25l3.5,2.08l-0.72,1.21l-4.28,-2.54l0,-5l1.5,0Zm5.5,-2l3,0l0,2l-3,0l0,3l-2,0l0,-3l-3,0l0,-2l3,0l0,-3l2,0l0,3Z"/>
</svg>
