<?xml version="1.0" encoding="UTF-8"?>
<!DOCTYPE svg PUBLIC "-//W3C//DTD SVG 1.1//EN" "http://www.w3.org/Graphics/SVG/1.1/DTD/svg11.dtd"><svg
  xmlns="http://www.w3.org/2000/svg" xmlns:xlink="http://www.w3.org/1999/xlink" version="1.1" width="24" height="24"
  viewBox="0 0 24 24">
  <path
    d="M19.16,3.45H4.84c-.65,0-1.17,.52-1.17,1.17V15.61c0,.64,.52,1.17,1.17,1.17h14.32c.65,0,1.17-.53,1.17-1.17V4.62c0-.65-.52-1.17-1.17-1.17Zm-2.94,9.81l-1.18,1.18-3.12-3.13-3.12,3.13-1.18-1.18,3.12-3.13-3.36-3.36,1.18-1.18,3.36,3.37,3.37-3.37,1.18,1.18-3.37,3.36,3.12,3.13ZM1.99,19.69c0,.46,.37,.83,.83,.83H21.14c.46,0,.83-.37,.83-.83s-.37-.83-.83-.83H2.82c-.46,0-.83,.37-.83,.83Z" />
</svg>