<svg xmlns="http://www.w3.org/2000/svg" viewBox="0 0 24 24">
  <path
    d="M4,7H2V20a2,2,0,0,0,2,2H16V20H4ZM20,2H8A2,2,0,0,0,6,4V16a2,2,0,0,0,2,2H20a2,2,0,0,0,2-2V4A2,2,0,0,0,20,2ZM18.15,15.46l-4.15-4-4.09,4.1L8.5,14.1,12.64,10,8.49,6,9.9,4.5l4.15,4,4-4L19.5,5.91,15.41,10l4.15,4Z"/>
</svg>
