<svg xmlns="http://www.w3.org/2000/svg" width="120" height="61" viewBox="0 0 120 61" xmlns:xlink="http://www.w3.org/1999/xlink">
  <defs>
    <polygon id="a" points="32 25 32 0 0 0 0 25 32 25"/>
  </defs>
  <g fill="none" fill-rule="evenodd" transform="translate(0 -18)">
    <g fill="#121821" fill-opacity=".37">
      <path d="M70.3963589,64.6168459 C65.3296923,64.6168459 61.0630256,60.3241629 61.0630256,55.226602 C61.0630256,50.129041 65.3296923,45.8363581 70.3963589,45.8363581 C75.4630256,45.8363581 79.7296923,50.129041 79.7296923,55.226602 C79.7296923,60.3241629 75.4630256,64.6168459 70.3963589,64.6168459 Z M70.3963589,41.8119678 C62.9296923,41.8119678 57.0630256,47.7144068 57.0630256,55.226602 C57.0630256,62.7387971 62.9296923,68.6412361 70.3963589,68.6412361 C77.8630256,68.6412361 83.7296923,62.7387971 83.7296923,55.226602 C83.7296923,47.7144068 77.8630256,41.8119678 70.3963589,41.8119678 Z M48.5296923,37.7875776 L54.9296923,31.3485532 L57.0630256,33.4948947 C60.5296923,36.9826995 65.0630256,39.129041 70.6630256,39.129041 L70.6630256,33.7631873 C66.6630256,33.7631873 63.4630256,32.1534312 61.0630256,29.7387971 L55.9963589,24.6412361 C54.6630256,23.5680654 53.3296923,23.03148 51.7296923,23.03148 C50.1296923,23.03148 48.7963589,23.5680654 47.9963589,24.6412361 L40.5296923,32.1534312 C39.4630256,33.226602 38.9296923,34.5680654 38.9296923,35.9095288 C38.9296923,37.5192849 39.4630256,38.8607483 40.5296923,39.6656264 L49.0630256,47.1778215 L49.0630256,60.5924556 L54.3963589,60.5924556 L54.3963589,43.9583093 L48.5296923,37.7875776 Z M33.0630256,64.6168459 C27.9963589,64.6168459 23.7296923,60.3241629 23.7296923,55.226602 C23.7296923,50.129041 27.9963589,45.8363581 33.0630256,45.8363581 C38.1296923,45.8363581 42.3963589,50.129041 42.3963589,55.226602 C42.3963589,60.3241629 38.1296923,64.6168459 33.0630256,64.6168459 Z M33.0630256,41.8119678 C25.5963589,41.8119678 19.7296923,47.7144068 19.7296923,55.226602 C19.7296923,62.7387971 25.5963589,68.6412361 33.0630256,68.6412361 C40.5296923,68.6412361 46.3963589,62.7387971 46.3963589,55.226602 C46.3963589,47.7144068 40.5296923,41.8119678 33.0630256,41.8119678 Z M61.0630256,24.3729434 C63.9963589,24.3729434 66.3963589,21.9583093 66.3963589,19.0070898 C66.3963589,16.0558703 63.9963589,13.6412361 61.0630256,13.6412361 C58.1296923,13.6412361 55.7296923,16.0558703 55.7296923,19.0070898 C55.7296923,21.9583093 58.1296923,24.3729434 61.0630256,24.3729434 Z" transform="rotate(33 51.73 41.141)"/>
      <path d="M1.18262396,2.4240204 L0.55512396,1.3890204 C0.26762396,0.919020403 0.55012396,0.281520403 1.09762396,0.226520403 C1.12762396,0.224020403 1.15262396,0.221520403 1.18262396,0.221520403 C1.21262396,0.221520403 1.23762396,0.224020403 1.26762396,0.226520403 C1.81512396,0.281520403 2.09762396,0.919020403 1.81012396,1.3890204 L1.18262396,2.4240204 Z" transform="rotate(29 2.949 159.691)"/>
      <path d="M73.1349743,20.1349743 L71.9619743,19.8469743 C71.4279743,19.7179743 71.1759743,19.0699743 71.5239743,18.6439743 C71.5419743,18.6229743 71.5599743,18.5989743 71.5809743,18.5809743 C71.6019743,18.5599743 71.6229743,18.5419743 71.6439743,18.5239743 C72.0699743,18.1759743 72.7179743,18.4279743 72.8469743,18.9619743 L73.1349743,20.1349743 Z" transform="rotate(41 72.25 19.25)"/>
      <path d="M80.2642882,26.2150245 L80.5792882,24.9220245 C80.7232882,24.3340245 81.4402882,24.0580245 81.9082882,24.4420245 C81.9322882,24.4600245 81.9532882,24.4810245 81.9772882,24.5020245 C81.9982882,24.5260245 82.0192882,24.5470245 82.0402882,24.5740245 C82.4242882,25.0420245 82.1452882,25.7560245 81.5572882,25.9000245 L80.2642882,26.2150245 Z" transform="rotate(30 81.24 25.24)"/>
      <polygon points="14.064 33.311 2 32.654 15 32"/>
      <polygon points="46.064 72.311 34 71.654 47 71" transform="matrix(1 0 0 -1 0 143.311)"/>
      <polygon points="48.424 74.813 41 74.408 49 74" transform="matrix(1 0 0 -1 0 149)"/>
      <polygon points="12.064 50 0 50.657 13 51.311"/>
      <polygon points="12 42.311 0 41.654 12 41"/>
    </g>
    <path fill="#121821" fill-opacity=".37" d="M63,79 L82.5016844,79 L102,79 L93.0088106,69.567119 C87.2078259,63.477627 77.7955429,63.477627 71.9911894,69.567119 L63,79 Z"/>
    <g transform="matrix(-1 0 0 1 120 38)">
      <mask id="b" fill="white">
        <use xlink:href="#a"/>
      </mask>
      <path fill="#121821" fill-opacity=".37" d="M25.2728954,17.8571931 C26.9810201,17.1046648 28.5060688,15.9295493 29.5997941,14.5432289 C31.5120178,12.1193424 31.6053953,9.30002355 29.8336758,6.76982465 C28.6176663,5.03315264 26.950011,3.85998943 25.0630151,2.99422693 C20.8881833,1.07882945 16.5227423,0.753680429 12.054113,1.50478886 C9.04746326,2.01008321 6.26821308,3.08705058 3.90942434,5.11550479 C0.349692588,8.1765556 0.186238199,12.5090953 3.62000671,15.7140849 C4.63261803,16.6591823 5.84389739,17.4667303 7.09336867,18.0559742 C11.6098254,20.1857712 16.3442213,20.5410924 21.1823311,19.4401648 C21.8506896,19.2882393 22.2385653,19.4213516 22.6933644,19.9057029 C23.5038039,20.7682707 24.4021898,21.5461791 25.2728954,22.3681033 L25.2728954,17.8571931 Z M26.3326335,25 C24.9386286,23.6285882 23.6075177,22.3881589 22.3654045,21.0625377 C21.8676833,20.5311533 21.4079787,20.4839428 20.7658991,20.6131505 C15.6977619,21.6342107 10.788524,21.1770143 6.12192753,18.8374322 C3.76997129,17.6584121 1.77032671,16.0346193 0.678178096,13.5416919 C-0.551671646,10.7347968 -0.072520785,8.10573985 1.82113247,5.75781609 C3.97809971,3.08350092 6.89452544,1.6428707 10.1199903,0.819526655 C15.5886171,-0.576377829 20.9358356,-0.259925484 26.0377849,2.31748391 C28.3858869,3.50378087 30.3429597,5.17993115 31.3858793,7.70320821 C32.5792891,10.5910355 31.9973004,13.2307415 29.9535073,15.4908111 C29.0782467,16.4586264 27.9908283,17.2429242 26.9403755,18.0289968 C26.5188629,18.3442067 26.31126,18.614336 26.32037,19.1563693 C26.3520798,21.0705244 26.3326335,22.985567 26.3326335,25 Z" mask="url(#b)"/>
    </g>
    <text fill="#121821" fill-opacity=".37" font-family="Kalam-Bold, Kalam" font-size="10" font-weight="bold">
      <tspan x="94" y="51">401!</tspan>
    </text>
  </g>
</svg>
