<svg version="1.1" id="Layer_1" xmlns="http://www.w3.org/2000/svg" xmlns:xlink="http://www.w3.org/1999/xlink" x="0px" y="0px"
	 viewBox="0 0 180 180" style="enable-background:new 0 0 180 180;" xml:space="preserve">
<style type="text/css">
	.st0{fill:#FFFFFF;}
	.st1{fill:#FF00FF;}
</style>
<rect class="st0" width="180" height="180"/>
<g>
	<rect x="47.7" y="23.9" class="st1" width="84.6" height="29"/>
	<polygon class="st1" points="132.3,81 47.7,81 47.7,110 103.4,110 103.4,156.2 132.3,156.2 	"/>
</g>
</svg>
