<svg xmlns="http://www.w3.org/2000/svg" width="48" height="48" viewBox="0 0 48 48">
  <path d="M41.9 26.3H6v-1.2C6 13.5 14 4 23.9 4s17.9 9.5 17.9 21.1a4.87 4.87 0 0 1 .1 1.2zM8.4 24h31.1C39 14.1 32.2 6.4 23.9 6.4S8.9 14.1 8.4 24z" style="fill:#007fab"/>
  <path d="M44.8 24.4c0-4.5-2.8-8.2-6.2-8.2v16.5c3.4-.1 6.2-3.8 6.2-8.3z" style="fill:#007fab"/>
  <path d="M3.2 24.4c0 4.5 2.8 8.2 6.2 8.2V16.1c-3.4 0-6.2 3.7-6.2 8.3z" style="fill:#007fab"/>
  <ellipse cx="23.9" cy="24.8" rx="16.2" ry="19.2" style="fill:#00bae0"/>
  <path d="M24.5 34.5v-1c6.4-.1 11-1.5 13.6-4.1a7.09 7.09 0 0 0 2.2-4.6h1a7.59 7.59 0 0 1-2.4 5.3c-2.9 2.8-7.7 4.3-14.4 4.4z" style="fill:#007fab"/>
  <circle cx="24.4" cy="34" r="3.5" style="fill:#00708e"/>
</svg>
