<svg xmlns="http://www.w3.org/2000/svg" width="48" height="48" viewBox="0 0 48 48">
  <path d="M18.9 38.9l10.7-8.2-5.5-6.7-13 7z" style="fill:#22bba5"/>
  <path d="M24.3 23.8l-4.6 4.6-10.1-10 4.9-4.9z" style="fill:#1a8173"/>
  <path d="M34 14l-4 4.2-.1-.1a3.58 3.58 0 0 1-.4-1.1 2.71 2.71 0 0 0-.4-2l-.1-.1a.1.1 0 0 1-.1-.1 2.77 2.77 0 0 0-3.7.3 2.43 2.43 0 0 0 0 3.2l.1.1a2.42 2.42 0 0 0 2 .6 7 7 0 0 1 1.2.3l.1.1-4.5 4.6-4.7 4.7a7.6 7.6 0 0 0 1.1.4 2.58 2.58 0 0 1 2.1.5l.1.1a2.41 2.41 0 1 1-3.2 3.6l-.2-.2-.1-.1c-.1-.1-.1-.1-.1-.2a3.13 3.13 0 0 1-.4-1.9 4.87 4.87 0 0 0-.4-1.1L14 34.1 24 44l10-10 10-10zm-4.4 11.4zm3.4 3.4z" style="fill:#22bba5"/>
  <path d="M18.2 18.3a3.58 3.58 0 0 1-1.1.4 2.82 2.82 0 0 0-2 .4l-.1.1-.1.1a2.39 2.39 0 0 0 .2 3.4 2.43 2.43 0 0 0 3.2 0l.1-.1a2.58 2.58 0 0 0 .5-2.1 7.6 7.6 0 0 1 .4-1.1l.1-.1 4.6 4.5.2.2 4.6-4.6-.1-.1a3.58 3.58 0 0 0-1.1-.4 2.58 2.58 0 0 1-2.1-.5l-.1-.1a2.39 2.39 0 0 1 .2-3.4 2.43 2.43 0 0 1 3.2 0l.2.2a2.39 2.39 0 0 1 .4 2 7.6 7.6 0 0 0 .4 1.1l.1.1L34 14 24 4l-9.6 9.6-.4.4 4.2 4.3z" style="fill:#008473"/>
  <path d="M18.3 29.8c.2.4.3.9.4 1.1a2.56 2.56 0 0 0 .4 1.9l.2.2.1.1.1.1a2.36 2.36 0 0 0 3.3-.5 2.4 2.4 0 0 0-.1-3l-.1-.1a2.58 2.58 0 0 0-2.1-.5 4.87 4.87 0 0 1-1.1-.4l4.7-4.7-.2-.2-4.6-4.5-.1.1a7.6 7.6 0 0 0-.4 1.1 2.58 2.58 0 0 1-.5 2.1 2.4 2.4 0 0 1-3.4-3.4l.1-.1a2.82 2.82 0 0 1 2-.4 4.87 4.87 0 0 0 1.1-.4l.1-.1L14 14l-.4.4L4 24l9.9 9.9.2.2z" style="fill:#009584"/>
</svg>
