<svg xmlns="http://www.w3.org/2000/svg" width="48" height="48" viewBox="0 0 48 48">
  <circle cx="24" cy="24" r="20" style="fill:#44517f"/>
  <path d="M24 24l4-19.6a20.6 20.6 0 0 0-13.5 2A19.87 19.87 0 0 0 4.5 20a20.84 20.84 0 0 0 .3 9.3l17.5-4.8z" style="fill:#425083"/>
  <path d="M28 4.4L24 24l-1.8.5-17.5 4.8a17.9 17.9 0 0 0 1.9 4.5A20 20 0 1 0 28 4.4z" style="fill:#4e5da4"/>
  <path d="M21 20.5a2.19 2.19 0 0 0-.9 1l-6.3 14.3 13.3-8.2a2.19 2.19 0 0 0 .9-1l6.3-14.3zm3.1 5.5a2 2 0 0 1 0-4 2 2 0 0 1 0 4z" style="fill:#7497ea"/>
  <circle cx="24.1" cy="24.1" r="2" style="fill:#425083"/>
</svg>
