<svg xmlns="http://www.w3.org/2000/svg" width="48" height="48" viewBox="0 0 48 48">
  <path d="M23.9 4L7.3 23.1V44h33.4V23.1z" style="fill:#ff9e00"/>
  <path d="M18.9 32.2h10.2V44H18.9z" style="fill:#d34e0a"/>
</svg>
