<svg xmlns="http://www.w3.org/2000/svg" width="48" height="48" viewBox="0 0 48 48">
  <path d="M8.3 43h31.3v1H8.3z" style="fill:#7497ea"/>
  <path d="M8.3 4v24.7L24 39.4l15.7-10.7V4z" style="fill:#4e5da4"/>
  <path d="M34.6 16l-1.3-4-3.6 2.2 2 .7c-.8 1.6-2.4 4.1-4.5 4.6-1.3.3-2.6-.3-3.9-1.6-1.9-1.9-3.7-2.7-5.6-2.4-3 .5-4.7 3.9-4.8 4l.9.4s1.6-3.1 4.1-3.5c1.5-.2 3.1.5 4.7 2.1a5.71 5.71 0 0 0 4 2 2.77 2.77 0 0 0 .9-.1c2.6-.6 4.4-3.5 5.2-5.2a10.84 10.84 0 0 0 1.9.8z" style="fill:#7497ea"/>
</svg>
