<svg xmlns="http://www.w3.org/2000/svg" width="16" height="16" viewBox="0 0 16 16">
  <path fill="#C6C6C6" d="M2 2h12v12H2z"/>
  <path fill="#FFFFFF" d="M3 3h10v10H3z"/>
  <path d="M6 6L5 7l3 4h1l7-9-1-1-6.5 7L6 6z"/>
</svg>
