<svg xmlns="http://www.w3.org/2000/svg" width="22" height="22" viewBox="0 0 22 22">
  <path d="M19 22c1.4 0 3-1.6 3-3V6h-5.5C16.3 6 15 4.8 15 4.5V0H3C1.6 0 0 1.6 0 3v16c0 1.4 1.6 3 3 3h16z"/>
  <path d="M15 0v6h7l-.5-1.5-5-4z"/>
  <path fill="#FFFFFF" d="M10.2 15.3L9 14.2l-1.9-1.7 1.2-1.1 1.9 1.7 3.5-3.1 1.2 1.1-4.7 4.2zM11 8c-2.8 0-5 2-5 4.5S8.2 17 11 17s5-2 5-4.5S13.8 8 11 8z"/>
</svg>
