<svg width="343" height="256" viewBox="0 0 343 256" version="1.1"
  xmlns="http://www.w3.org/2000/svg"
  xmlns:xlink="http://www.w3.org/1999/xlink" xml:space="preserve"
  xmlns:serif="http://www.serif.com/" style="fill-rule:evenodd;clip-rule:evenodd;stroke-linejoin:round;stroke-miterlimit:2;">
  <g id="Illustration">
    <path id="Fill-1" d="M242.589,115.319C280.389,115.319 320.52,102.32 336.56,78.24C338,76.04 339.2,68.72 340.56,66.56L342.68,63.88C341.52,81.4 344.36,104.52 333.48,118.88C313.48,145.64 277.48,152.2 246.52,152.2C220.28,152.2 191.72,146.12 172.56,125.68C156.56,108.64 155.32,83.32 156.04,61.2C155.936,59.862 156.017,58.516 156.28,57.2C156.382,56.551 156.529,55.909 156.72,55.28C156.911,54.651 200.269,115.319 242.589,115.319Z" style="fill:rgb(123,123,123);"/>
    <path id="Fill-3" d="M249.08,3.44C300.68,3.44 342.48,29 342.48,60.56C342.48,92.12 300.68,117.64 249.08,117.64C197.48,117.64 155.68,92 155.68,60.56C155.68,29.12 197.48,3.44 249.08,3.44" style="fill:rgb(175,186,192);"/>
    <path id="Fill-5" d="M335.56,67.68C335.56,93.4 300.64,114.16 251.56,114.16C202.48,114.16 162.6,93.4 162.6,67.44C162.6,41.48 202.6,20.76 251.44,20.76C300.28,20.76 335.44,42 335.44,67.68" style="fill:rgb(216,235,249);"/>
    <path id="Fill-7" d="M250.28,6.92C200.12,6.92 159.12,30.08 159.12,58.92C159.12,87.76 200.12,110.92 250.28,110.92C300.44,110.92 339.04,90.04 339.04,61.56C339.04,33.08 300.68,6.92 250.28,6.92M250.04,117.64C192.08,117.4 155.68,89.4 155.68,57.64C155.68,25.88 198,0 250.04,0C302.08,0 342.96,28.48 342.48,60.44C342,92.4 302.04,117.64 250.04,117.64" style="fill:rgb(203,203,203);"/>
    <path id="Fill-9" d="M189.36,132C189.4,131.671 189.481,131.349 189.6,131.04C191.09,124.905 190.158,118.426 187,112.96C183.476,107.677 177.031,104.657 170.691,104.303C170.011,104.303 169.92,104.72 169.2,104.72L166.64,105.68L2.799,229.022C2.799,229.022 7.082,226.818 17.882,237.698C26.522,246.378 22.827,252.564 21.387,255.444C21.147,255.684 172,145.52 188.64,133.44C189.6,132.48 189.36,132 189.36,132" style="fill:rgb(165,167,171);"/>
    <g id="Fill-11" transform="matrix(1,0,0,1,-1.90995,0.173632)">
      <path d="M165.94,107.474C166.369,107.148 168.202,105.75 168.535,105.501C169.655,104.662 170.16,104.24 171.6,104C176.03,103.567 180.472,104.73 184.12,107.28C191.079,111.869 194.757,120.117 193.52,128.36C193.521,130.408 192.398,132.3 190.6,133.28C190.057,133.696 188.406,134.95 188.088,135.106C188.331,130.407 187.467,125.521 185.8,121.12C182.024,113.473 174.431,108.27 165.94,107.474Z" style="fill:rgb(203,203,203);"/>
    </g>
    <g id="Group-15">
      <g>
        <path id="Fill-13" d="M1.84,229.92C1.317,230.615 0.899,231.183 0.6,232C-0.89,238.78 1.109,245.875 5.92,250.88C9.361,254.651 14.406,256.555 19.48,256C26.28,254.84 24.32,245.76 22.4,241.32C19.29,234.556 13.021,229.757 5.68,228.52C4.695,228.444 3.707,228.608 2.8,229L1.84,229.92Z" style="fill:rgb(113,116,122);"/>
      </g>
    </g>
  </g>
</svg>
