// Jest Snapshot v1, https://goo.gl/fbAQLP

exports[`BusyDots should render with default props 1`] = `
<div
  class="comd-busy-dots"
  data-busy-dots=""
  data-testid="busy-dots"
>
  <div
    class="comd-busy-dots__dot"
  />
  <div
    class="comd-busy-dots__dot"
  />
  <div
    class="comd-busy-dots__dot"
  />
</div>
`;
