// Jest Snapshot v1, https://goo.gl/fbAQLP

exports[`zindex-provider ::  should be created with default values 1`] = `
Object {
  "initial": 0,
  "obtain": [Function],
  "obtainFixed": [Function],
  "release": [Function],
  "step": 10,
}
`;

exports[`zindex-provider ::  should set initial and step 1`] = `
Object {
  "initial": 1000,
  "obtain": [Function],
  "obtainFixed": [Function],
  "release": [Function],
  "step": 200,
}
`;
