// Jest Snapshot v1, https://goo.gl/fbAQLP

exports[`DialogFooter should render dialog footer 1`] = `
<footer
  class="comd-dialog__footer"
  data-dialog-footer=""
  data-testid="dialog-footer"
>
  Footer Content
</footer>
`;
