<svg xmlns="http://www.w3.org/2000/svg" width="18" height="18" viewBox="0 0 18 18">
  <path d="M17.5 4H.5L9 9.7 17.5 4zM9 11.2L7.4 10 0 14h18l-7.4-4L9 11.2zM0 4v9.3l6.6-4L0 4zm11.4 5.3l6.6 4V4l-6.6 5.3z"/>
</svg>
