<svg xmlns="http://www.w3.org/2000/svg" width="18" height="18" viewBox="0 0 18 18">
  <path d="M17.7 6.9h-2.3c.7 2 .4 4.2-.9 6-2.1 2.9-6.1 3.6-9.1 1.7l1.1-1.5c.1-.2 0-.3-.2-.3l-4.9.1c-.2 0-.3.2-.3.4l1.5 4.6c.1.2.2.2.3.1L4 16.4h.1c4 2.6 9.4 1.6 12.2-2.2 1.6-2.2 2.1-4.9 1.4-7.3zM2.5 11.1H.3C-.4 8.7.1 6 1.7 3.8 4.5 0 9.9-1 13.9 1.6L15 .1c.1-.2.3-.1.3.1l1.5 4.6c.1.2-.1.4-.3.4l-4.9.1c-.2 0-.3-.1-.1-.3l1.1-1.5c-3-1.9-7-1.2-9.1 1.7-1.3 1.8-1.6 4-.9 6l-.1-.1z"/>
</svg>
