<svg xmlns="http://www.w3.org/2000/svg" width="18" height="18" viewBox="0 0 18 18">
  <path d="M6.7 5.5v1.9c0 .9-.2 1.6-.5 1.9-.3.3-.8.5-1.4.5 0 0-.1 0-.1-.1V9s0-.1.1-.1c.5 0 .7-.3.7-1v-.3H4.4s-.1 0-.1-.1v-2s0-.1.1-.1l2.3.1c0-.1 0-.1 0 0zm3.4 0v1.9c0 .9-.2 1.6-.5 1.9-.3.3-.8.5-1.4.5 0 0-.1 0-.1-.1V9s0-.1.1-.1c.5 0 .7-.3.7-1v-.3H7.8s-.1 0-.1-.1v-2s0-.1.1-.1l2.3.1c0-.1 0-.1 0 0z"/>
  <path d="M13.7 5.1C11.3 1.2 4.8 1 1.6 4 0 5.5-.5 7.7.6 9.6c.3.5.6.9 1 1.3.1.1 1.1.6 1.1.8 0 .1-.2.4-.3.5-.4.6-1.7 2.1-.6 2.6.8.4 2-.7 2.6-1.1.6-.1 1-.5 1.4-.7.5-.2 1-.1 1.5-.1.3.3.7.4.7.7 0 .2-.3.5-.4.7-.2.5-.6.9-.6 1.4 0 1.4 1.5.4 2.1.1.5-.3 1.3-1 1.9-1.2.4-.1 1 .1 1.5 0 .6 0 1.3-.2 1.9-.4 1.9-.7 3.6-2.3 3.6-4.5 0-2.4-2.2-4-4.3-4.6zm-6.6 6.5c-.8 0-1.2-.1-1.9.3l-1.5.9c.5-.8.8-1.5-.1-2.1-.9-.6-1.8-1.3-2.1-2.4C.9 6.4 2.3 4.7 4 4c2-1 4.7-.9 6.7.2 1.6.8 2.8 2.5 2.2 4.3-.7 2.3-3.6 3.2-5.8 3.1zm6.2 1.7c-.8.2-1.6 0-2.4.1-.7.1-1.5.7-2.1 1.1.4-.5.8-1.2.2-1.7 3-.6 6-3 5.2-6.3 1.4.6 2.6 1.8 2.6 3.4 0 1.8-1.8 3-3.5 3.4z"/>
</svg>
