<svg xmlns="http://www.w3.org/2000/svg" width="18" height="18" viewBox="0 0 18 18">
  <path d="M14 11H4V9h10v2zm0 4H4v-2h10v2zm-4-9V0H3.2C2.6 0 2 .6 2 1.4v15.2c0 .8.6 1.4 1.2 1.4h11.5c.7 0 1.2-.6 1.2-1.4V6H10zm5.1-2.4c.4.5.8.7.9 1.4h-5V0c.7.1 1.1.4 1.5.9l2.6 2.7z"/>
</svg>
