<svg xmlns="http://www.w3.org/2000/svg" width="18" height="18" viewBox="0 0 18 18">
  <path d="M7 14h10v2H7zm0-6h10v2H7zm0-6h10v2H7z"/>
  <circle cx="3" cy="3" r="2"/>
  <circle cx="3" cy="9" r="2"/>
  <circle cx="3" cy="15" r="2"/>
</svg>
