<svg xmlns="http://www.w3.org/2000/svg" width="18" height="18" viewBox="0 0 18 18">
  <path d="M15.2 16.9h-10c.2-.4.4-1 .4-1.8h11.3c-.2.7-.5 1.8-1.7 1.8zM4.5 14.5c0 1.8-.5 2.3-.8 2.3-.1 0-.3-.2-.3-.8V2.6c0-.6-.2-1.1-.4-1.5h10.8c.7 0 .8.7.8 1V14H4.5v.5zM1.1 3.9c.1-1.4.4-2 .8-2.4.2.1.3.4.3 1.1v1.2H1.1zM15.7 14V2.1c0-.8-.5-2.1-1.9-2.1h-11c-.2 0-.9 0-1.6.6-.8.7-1.2 2-1.2 3.8V5h2.2v11.1c0 .7.2 1.2.5 1.5.3.3.7.4.8.4h11.7c2.2 0 2.8-2.3 2.8-3.5V14h-2.3z"/>
  <path d="M5 3h8v1H5zm0 3h8v1H5zm0 3h8v1H5zm0 3h8v1H5z"/>
</svg>
