// Jest Snapshot v1, https://goo.gl/fbAQLP

exports[`Advanced Options :: Quantum Options renders 1`] = `
<div>
  <div
    class="comd-survey-data-export__input-container"
  >
    <div
      class="comd-button-toggle"
      data-testid="switch"
    >
      <input
        checked=""
        class="comd-button-toggle__checkbox"
        id="recodeMultis"
        type="checkbox"
      />
      <label
        class="comd-button-toggle__label"
        for="recodeMultis"
      >
        <span
          class="comd-button-toggle__toggle-element"
        />
        <span
          class="comd-button-toggle__label-help-wrapper"
        >
          <span
            class="comd-button-toggle__toggle-text-label"
          >
            Recoded multis
          </span>
        </span>
      </label>
    </div>
  </div>
  <div
    class="comd-survey-data-export__input-container"
  >
    <div
      class="comd-button-toggle"
      data-testid="switch"
    >
      <input
        class="comd-button-toggle__checkbox"
        id="excludeHierarchy"
        type="checkbox"
      />
      <label
        class="comd-button-toggle__label"
        for="excludeHierarchy"
      >
        <span
          class="comd-button-toggle__toggle-element"
        />
        <span
          class="comd-button-toggle__label-help-wrapper"
        >
          <span
            class="comd-button-toggle__toggle-text-label"
          >
            Exclude hierarchy/table lookups labels
          </span>
        </span>
      </label>
    </div>
  </div>
</div>
`;
