<svg xmlns="http://www.w3.org/2000/svg" width="48" height="48" viewBox="0 0 48 48" role="img">
  <path d="M15.3 18.1L2 44h26.6z" style="fill:#dd6f00"/>
  <path d="M28.8 10.4L11.6 44H46z" style="fill:#ff9e00"/>
  <path d="M18.7 9.9h9.8V4.4h-9.8l2.8 2.8z" style="fill:#ff9e00"/>
  <path d="M28.8 12.1a.43.43 0 0 1-.4-.4V4.4a.43.43 0 0 1 .4-.4.43.43 0 0 1 .4.4v7.4c0 .2-.2.3-.4.3z" style="fill:#dd6f00"/>
</svg>
