<svg xmlns="http://www.w3.org/2000/svg" width="48" height="48" viewBox="0 0 48 48" role="img">
  <path d="M7.5 4h33.1v40H7.5z" style="fill:#007fab"/>
  <path d="M7.5 4h33.1v5.4H7.5z" style="fill:#00bae0"/>
  <circle cx="10.1" cy="6.8" r=".9" style="fill:#00708e"/>
  <path d="M13.3 5.9a1 1 0 0 0-.9.9.9.9 0 1 0 .9-.9z" style="fill:#00708e"/>
  <path d="M16.5 5.9a1 1 0 0 0-.9.9.9.9 0 1 0 1.8 0 1 1 0 0 0-.9-.9z" style="fill:#00708e"/>
  <path d="M37.6 28.7v12.5H18.5V44h22V28.7z" style="fill:#00708e"/>
  <path d="M37.6 28.7v-2.8h-22v15.2h22z" style="fill:#00bae0"/>
  <circle cx="18.9" cy="34" r=".9" style="fill:#00708e"/>
  <path d="M34.8 33.4H22.7a.58.58 0 0 0-.6.6.53.53 0 0 0 .6.6h12.1a.6.6 0 0 0 0-1.2z" style="fill:#00708e"/>
</svg>
