<svg xmlns="http://www.w3.org/2000/svg" width="48" height="48" viewBox="0 0 48 48" role="img">
  <path d="M41.2 16H11.5v24.6h15.4a7.57 7.57 0 0 1-.1 1.5 2.59 2.59 0 0 1-1.3 1.9l5.6-1.9a31.83 31.83 0 0 1 10.1-1.6z" style="fill:#4e5da4"/>
  <path d="M6.8 4h29.7v24.6H21.1a7.57 7.57 0 0 0 .1 1.5 2.59 2.59 0 0 0 1.3 1.9l-5.6-1.9a31.83 31.83 0 0 0-10.1-1.6z" style="fill:#7497ea"/>
</svg>
