<svg xmlns="http://www.w3.org/2000/svg" width="48" height="48" viewBox="0 0 48 48" role="img">
  <path d="M5.3 27.7v10.8l9.4 5.4 9.4-5.4V27.7l-9.4-5.4z" style="fill:#009584"/>
  <path d="M24 27.7v10.8l9.4 5.4 9.4-5.4V27.7l-9.4-5.4z" style="fill:#008473"/>
  <path d="M12.7 10.4v13L24 29.9l11.3-6.5v-13L24 3.9z" style="fill:#22bba5"/>
</svg>
