<svg xmlns="http://www.w3.org/2000/svg" width="48" height="48" viewBox="0 0 48 48" role="img">
  <path d="M7.2 4v35.3h4.2a7.17 7.17 0 0 1 2.9.6l9.8 4.1v-3.5a1.16 1.16 0 0 1 1.2-1.2h15.4V4z" style="fill:#009584"/>
  <path d="M20 13.5a.47.47 0 0 0-.5.5v5.8a.76.76 0 0 1-.2.5l-2.4 2.1-.1.1a.37.37 0 0 0-.1.3v6.3a.51.51 0 0 0 1 0v-5.8a.76.76 0 0 1 .2-.5l2.3-2.1a.37.37 0 0 0 .1-.3V14c.2-.3 0-.5-.3-.5z" style="fill:#22bba5"/>
  <circle cx="20" cy="14.3" r="2.1" style="fill:#008473"/>
  <circle cx="17.3" cy="29.4" r="2.1" style="fill:#008473"/>
  <path d="M28 13.5a.47.47 0 0 1 .5.5v5.8a.76.76 0 0 0 .2.5l2.4 2.1.1.1a.37.37 0 0 1 .1.3v6.3a.51.51 0 0 1-1 0v-5.8a.76.76 0 0 0-.2-.5l-2.3-2.1a.37.37 0 0 1-.1-.3V14c-.2-.3 0-.5.3-.5z" style="fill:#22bba5"/>
  <circle cx="28" cy="14.3" r="2.1" style="fill:#008473"/>
  <circle cx="30.7" cy="29.4" r="2.1" style="fill:#008473"/>
</svg>
