<svg xmlns="http://www.w3.org/2000/svg" viewBox="0 0 182.2 113.9" role="img">
  <path d="M125.4,25V49.1h48.9V73.7H125.4v40.2H97.1V0h85.1V25Z" style="fill:#00253b"/>
  <rect width="72.9" height="25" style="fill:#f0f"/>
  <polygon points="72.9 49.1 0 49.1 0 74.1 48 74.1 48 113.9 72.9 113.9 72.9 49.1" style="fill:#f0f"/>
</svg>
