<svg xmlns="http://www.w3.org/2000/svg" viewBox="0 0 868 173" role="img">
  <defs>
    <style>.e4d81dd8-4b17-45c0-8d9f-06d577a142f3{fill:#f0f;}.ff6ce21b-a8d9-4236-b43a-ce1db4e6beb2{fill:#00253b;}</style>
  </defs>
  <rect class="e4d81dd8-4b17-45c0-8d9f-06d577a142f3" x="1" y="33.45" width="68.78" height="24.17"/>
  <polygon class="e4d81dd8-4b17-45c0-8d9f-06d577a142f3"
           points="69.77 79.07 1 79.07 1 103.04 46.53 103.04 46.53 139.51 69.77 139.51 69.77 79.07"/>
  <path class="ff6ce21b-a8d9-4236-b43a-ce1db4e6beb2"
        d="M256.69,101.35A40.69,40.69,0,0,1,253.37,118a37.27,37.27,0,0,1-9.06,12.68A41.71,41.71,0,0,1,231,138.79a46.68,46.68,0,0,1-32.23,0,40.2,40.2,0,0,1-13.28-8.08,37.9,37.9,0,0,1-9-12.68,40.69,40.69,0,0,1-3.32-16.68,40.14,40.14,0,0,1,3.32-16.6,37.28,37.28,0,0,1,9-12.53,39,39,0,0,1,13.28-7.85,49.1,49.1,0,0,1,32.23,0,40,40,0,0,1,13.28,7.85,36.94,36.94,0,0,1,9.06,12.53A40.11,40.11,0,0,1,256.69,101.35Zm-23.85,0a21.26,21.26,0,0,0-1.21-7.09,18.86,18.86,0,0,0-3.47-6.11,17.66,17.66,0,0,0-5.59-4.3,17.35,17.35,0,0,0-20.91,4.3,18.34,18.34,0,0,0-3.32,6.11,22.81,22.81,0,0,0,0,14.18,19.23,19.23,0,0,0,3.4,6.26,16.67,16.67,0,0,0,5.58,4.45,18.69,18.69,0,0,0,15.4,0,16.69,16.69,0,0,0,5.58-4.45,19.52,19.52,0,0,0,3.4-6.26A22.58,22.58,0,0,0,232.84,101.35Z"/>
  <polygon class="ff6ce21b-a8d9-4236-b43a-ce1db4e6beb2"
           points="92.33 139.59 118.66 139.59 118.75 103.02 164.13 103.02 164.13 79.08 118.75 79.08 118.72 57.61 171.51 57.61 171.51 33.45 92.33 33.45 92.33 139.59"/>
  <path class="ff6ce21b-a8d9-4236-b43a-ce1db4e6beb2"
        d="M535,62.58v5.08a36,36,0,0,0-17.45-5.77c-11.84-.83-21.94,3-30.06,11.61-11.77,12.46-14.3,31.75-6.28,47.35,10.91,21.24,36.28,25.7,53.76,14.8v3.94h25.25v-77Zm0,51.07c-6,6.93-18.24,8.64-25.8,3.39-5.7-4-7.91-9.7-7.69-16.42.31-9.26,6.59-16.24,15.78-17.34A21.17,21.17,0,0,1,535,89.73C535,97,535,107.26,535,113.65Z"/>
  <path class="ff6ce21b-a8d9-4236-b43a-ce1db4e6beb2"
        d="M455.34,118.45c-7.26-.12-11.18-3.82-11.34-11-.15-7.07-.06-20.66-.06-20.66l25.68,0v-24H443.91V38.14H418.63V62.68H403.88V86.75l14.77,0s0,13.82,0,21.11a48.73,48.73,0,0,0,.81,8.43c2.26,12.93,10.93,22,23.78,24.57,9.3,1.9,20,.3,28.92-2.8-.17-1.27-2.75-20.18-3.06-22.62A35,35,0,0,1,455.34,118.45Z"/>
  <path class="ff6ce21b-a8d9-4236-b43a-ce1db4e6beb2"
        d="M317.13,86.69c-12.33.47-20.13,3.74-26.06,9.52v43.37H265.64v-77h25.43V72c6.71-5.77,14.82-9.36,26.06-9.36Z"/>
  <path class="ff6ce21b-a8d9-4236-b43a-ce1db4e6beb2"
        d="M372.3,93.35l-14-2.35c-6.08-1.1-8-3.44-8-6.1,0-2.82,3-5.16,9.52-5.16,6.4,0,11.5,2.32,12.7,7l22.45,0c-1.77-18.9-17.64-25-35.15-25-20.13,0-33.7,9.39-33.7,25.34,0,13.3,9.21,20.65,22.16,22.84l15.29,2.66c5,.78,8,2.66,8,5.32,0,3.28-4.21,5.16-10.92,5.16s-12-2.25-14.11-6.83h-23c3,18,18.39,25.45,36.91,25.45,19.82,0,35.42-7.82,35.42-25.34C395.86,102.89,386.34,96,372.3,93.35Z"/>
  <path class="ff6ce21b-a8d9-4236-b43a-ce1db4e6beb2"
        d="M679.85,66.75c0,19-14.25,33.35-33.35,33.35H619.21v39.41H608.6V33.39h37.9C665.6,33.39,679.85,47.64,679.85,66.75Zm-10.61,0c0-13.65-9.55-23.35-22.74-23.35H619.21V90.09H646.5C659.69,90.09,669.24,80.24,669.24,66.75Z"/>
  <path class="ff6ce21b-a8d9-4236-b43a-ce1db4e6beb2" d="M696.53,28.85h10V139.51h-10Z"/>
  <path class="ff6ce21b-a8d9-4236-b43a-ce1db4e6beb2"
        d="M791.13,63.71v75.8h-10V127.69c-5.91,9.55-14.7,13.64-25.47,13.64-18.49,0-29.71-12.13-29.71-31.08V63.71h10v46.54c0,13.5,7.43,21.38,20.62,21.38,13.34,0,24.56-7.88,24.56-28.2V63.71Z"/>
  <path class="ff6ce21b-a8d9-4236-b43a-ce1db4e6beb2"
        d="M864.5,119.5c0,12.89-11.22,21.83-27.44,21.83-15.16,0-25.47-7.73-29.26-17.43l8.49-5c2.73,7.74,10.61,12.74,20.77,12.74,8.94,0,17.44-3.18,17.44-12.13,0-18.8-44.27-8-44.27-35.93,0-12.12,10.76-21.68,25.92-21.68,12.43,0,22.13,6.07,26.53,15.47l-8.34,4.85c-3.18-7.73-10.91-10.61-18.19-10.61-7.88,0-15.92,3.79-15.92,12C820.23,102.37,864.5,91.61,864.5,119.5Z"/>
</svg>
