<svg width="810" height="641" viewBox="0 0 810 641" version="1.1"
     role="img" xmlns="http://www.w3.org/2000/svg">
  <g>
    <path d="M420.562,523.94c-0.2,-10.3 -3.3,-15.2 -9.2,-18.8c-6.1,-3.5 -16.5,-5.2 -30.6,-5.2c-14.1,0 -24.5,1.7 -30.5,5.2c-6,3.6 -9.1,8.4 -9.2,18.8c0.1,10.3 3.3,15.2 9.2,18.8c6.1,3.5 16.5,5.3 30.5,5.2c14.1,0.1 24.5,-1.6 30.6,-5.2c5.9,-3.6 9.1,-8.5 9.2,-18.8" style="fill:#f47621;"/>
    <path d="M345.983,303.582c-25.4,-16.2 -60.9,-21.4 -105.4,-21.4c-7.4,0 -14.4,0.2 -21.2,0.5c-0.6,-7 -0.9,-14.3 -0.9,-22c0.2,-67.2 20.9,-107.5 60.3,-133c39.5,-25.4 99.7,-35.2 177.8,-35.2c78.1,-0.1 138.2,9.7 177.8,35.2c39.3,25.4 60.1,65.8 60.3,133c-0.2,67.2 -21,107.5 -60.3,132.9c-39.5,25.4 -99.7,35.2 -177.8,35.1c-27.7,0 -53.1,-1.2 -76.2,-3.9c3.2,-11 4.8,-23.4 4.7,-37.2c0.2,-39.7 -13.4,-67.8 -39.1,-84" style="fill:#f47621;"/>
    <path d="M272.8,401.382c23.7,15 52.9,24.5 87.2,30.1c-5.2,9 -12.2,16 -21,21.7c-20.8,13.4 -53.4,18.8 -96.1,18.7c-42.7,0.1 -75.3,-5.4 -96.1,-18.7c-20.6,-13.3 -31.5,-33.9 -31.7,-69.9c0.2,-36.1 11.1,-56.6 31.7,-69.9c14.9,-9.6 35.9,-15.1 62.3,-17.4c6.9,48.7 28.6,83.3 63.7,105.4" style="fill:#f47621;"/>
    <path d="M221.5,294.482c6.3,-0.3 12.8,-0.4 19.6,-0.4c43.5,-0.1 76.6,5.3 97.8,18.5c21,13.2 32.1,33.5 32.3,69.2c-0.1,13.4 -1.7,24.6 -4.8,34.1c-35.4,-5.2 -64.6,-14.3 -87.1,-28.3c-31.6,-19.8 -51.2,-48.8 -57.8,-93.1" style="fill:#f47621;"/>
  </g>
</svg>
